0,0.192600733,3.3,0,2.178,0,489,0
5,0.20952381,3.3,3000,2.178,489,489,2.178
10,0.234505495,,,,,,
15,0.269157509,,,,,,
20,0.302197802,,,,,,
24,0.333626374,,,,,,
30,0.366666667,,,,,,
35,0.398095238,,,,,,
40,0.42952381,,,,,,
44,0.46014652,,,,,,
49,0.48996337,,,,,,
55,0.51978022,,,,,,
60,0.55040293,,,,,,
65,0.578608059,,,,,,
70,0.605201465,,,,,,
74,0.635824176,,,,,,
80,0.664835165,,,,,,
85,0.692234432,,,,,,
89,0.718021978,,,,,,
95,0.747838828,,,,,,
99,0.772820513,,,,,,
105,0.798608059,,,,,,
110,0.825201465,,,,,,
114,0.85018315,,,,,,
120,0.875970696,,,,,,
125,0.900952381,,,,,,
130,0.926739927,,,,,,
134,0.95010989,,,,,,
140,0.972673993,,,,,,
145,0.999267399,,,,,,
149,1.023443223,,,,,,
155,1.046813187,,,,,,
160,1.069377289,,,,,,
164,1.093553114,,,,,,
170,1.116117216,,,,,,
175,1.139487179,,,,,,
179,1.162051282,,,,,,
185,1.182197802,,,,,,
190,1.205567766,,,,,,
195,1.225714286,,,,,,
199,1.248278388,,,,,,
205,1.268424908,,,,,,
210,1.290989011,,,,,,
214,1.30952381,,,,,,
220,1.32967033,,,,,,
225,1.34981685,,,,,,
229,1.370769231,,,,,,
235,1.39010989,,,,,,
240,1.409450549,,,,,,
244,1.428791209,,,,,,
250,1.450549451,,,,,,
255,1.465860806,,,,,,
260,1.486007326,,,,,,
265,1.503736264,,,,,,
269,1.521465201,,,,,,
275,1.540805861,,,,,,
280,1.557728938,,,,,,
285,1.575457875,,,,,,
290,1.592380952,,,,,,
295,1.606886447,,,,,,
299,1.629450549,,,,,,
305,1.643956044,,,,,,
310,1.66007326,,,,,,
315,1.676996337,,,,,,
320,1.693113553,,,,,,
325,1.707619048,,,,,,
329,1.726153846,,,,,,
334,1.741465201,,,,,,
340,1.758388278,,,,,,
345,1.774505495,,,,,,
350,1.789010989,,,,,,
355,1.804322344,,,,,,
359,1.818827839,,,,,,
364,1.833333333,,,,,,
370,1.849450549,,,,,,
375,1.863150183,,,,,,
380,1.878461538,,,,,,
385,1.892161172,,,,,,
390,1.905860806,,,,,,
394,1.9203663,,,,,,
399,1.934871795,,,,,,
405,1.946153846,,,,,,
410,1.961465201,,,,,,
415,1.975164835,,,,,,
420,1.988058608,,,,,,
424,2.00014652,,,,,,
429,2.013040293,,,,,,
435,2.026739927,,,,,,
440,2.0396337,,,,,,
445,2.052527473,,,,,,
450,2.065421245,,,,,,
454,2.077509158,,,,,,
459,2.08959707,,,,,,
465,2.100879121,,,,,,
470,2.113772894,,,,,,
475,2.125054945,,,,,,
480,2.136336996,,,,,,
484,2.146813187,,,,,,
489,2.158901099,,,,,,
494,2.170989011,,,,,,
500,2.183076923,,,,,,
505,2.193553114,,,,,,
510,2.203223443,,,,,,
515,2.214505495,,,,,,
520,2.224981685,,,,,,
525,2.235457875,,,,,,
530,2.245934066,,,,,,
534,2.255604396,,,,,,
539,2.266886447,,,,,,
545,2.276556777,,,,,,
550,2.287838828,,,,,,
555,2.296703297,,,,,,
560,2.305567766,,,,,,
565,2.316849817,,,,,,
570,2.326520147,,,,,,
575,2.334578755,,,,,,
580,2.345054945,,,,,,
585,2.354725275,,,,,,
590,2.364395604,,,,,,
594,2.373260073,,,,,,
599,2.381318681,,,,,,
604,2.391794872,,,,,,
610,2.401465201,,,,,,
615,2.40952381,,,,,,
620,2.416776557,,,,,,
625,2.426446886,,,,,,
630,2.434505495,,,,,,
635,2.444981685,,,,,,
640,2.451428571,,,,,,
645,2.46029304,,,,,,
650,2.468351648,,,,,,
655,2.474798535,,,,,,
659,2.484468864,,,,,,
664,2.491721612,,,,,,
669,2.500586081,,,,,,
675,2.507032967,,,,,,
680,2.513479853,,,,,,
685,2.523150183,,,,,,
690,2.531208791,,,,,,
695,2.537655678,,,,,,
700,2.545714286,,,,,,
705,2.556190476,,,,,,
710,2.56021978,,,,,,
715,2.568278388,,,,,,
719,2.573919414,,,,,,
724,2.581172161,,,,,,
729,2.589230769,,,,,,
734,2.595677656,,,,,,
740,2.602930403,,,,,,
745,2.61018315,,,,,,
750,2.615824176,,,,,,
755,2.623076923,,,,,,
760,2.62952381,,,,,,
765,2.635970696,,,,,,
770,2.642417582,,,,,,
775,2.648864469,,,,,,
780,2.655311355,,,,,,
784,2.660952381,,,,,,
789,2.668205128,,,,,,
794,2.674652015,,,,,,
799,2.679487179,,,,,,
805,2.685128205,,,,,,
810,2.689157509,,,,,,
815,2.697216117,,,,,,
820,2.702857143,,,,,,
825,2.708498168,,,,,,
830,2.714945055,,,,,,
835,2.71978022,,,,,,
840,2.725421245,,,,,,
844,2.731868132,,,,,,
849,2.737509158,,,,,,
854,2.742344322,,,,,,
859,2.747179487,,,,,,
865,2.754432234,,,,,,
870,2.759267399,,,,,,
875,2.762490842,,,,,,
880,2.770549451,,,,,,
885,2.774578755,,,,,,
890,2.777802198,,,,,,
895,2.784249084,,,,,,
900,2.790695971,,,,,,
905,2.793919414,,,,,,
909,2.79956044,,,,,,
914,2.804395604,,,,,,
919,2.808424908,,,,,,
924,2.813260073,,,,,,
930,2.818095238,,,,,,
935,2.822930403,,,,,,
940,2.829377289,,,,,,
945,2.831794872,,,,,,
950,2.835824176,,,,,,
955,2.840659341,,,,,,
960,2.845494505,,,,,,
965,2.847106227,,,,,,
969,2.853553114,,,,,,
974,2.858388278,,,,,,
979,2.861611722,,,,,,
984,2.866446886,,,,,,
989,2.87047619,,,,,,
995,2.874505495,,,,,,
1000,2.88014652,,,,,,
1005,2.883369963,,,,,,
1010,2.886593407,,,,,,
1015,2.892234432,,,,,,
1020,2.893040293,,,,,,
1025,2.898681319,,,,,,
1030,2.901904762,,,,,,
1035,2.905934066,,,,,,
1040,2.909157509,,,,,,
1045,2.913186813,,,,,,
1050,2.917216117,,,,,,
1055,2.922857143,,,,,,
1060,2.924468864,,,,,,
1064,2.926080586,,,,,,
1069,2.930915751,,,,,,
1074,2.934139194,,,,,,
1079,2.935750916,,,,,,
1084,2.942197802,,,,,,
1090,2.945421245,,,,,,
1095,2.948644689,,,,,,
1100,2.951062271,,,,,,
1105,2.955091575,,,,,,
1110,2.957509158,,,,,,
1115,2.961538462,,,,,,
1120,2.966373626,,,,,,
1125,2.966373626,,,,,,
1130,2.971208791,,,,,,
1135,2.973626374,,,,,,
1140,2.959120879,,,,,,
1145,2.979267399,,,,,,
1150,2.982490842,,,,,,
1155,2.985714286,,,,,,
1160,2.988937729,,,,,,
1165,2.990549451,,,,,,
1170,2.993772894,,,,,,
1175,2.996996337,,,,,,
1180,3.00021978,,,,,,
1185,3.001831502,,,,,,
1189,3.005054945,,,,,,
1194,3.008278388,,,,,,
1199,3.010695971,,,,,,
1204,3.013113553,,,,,,
1209,3.01956044,,,,,,
1214,3.018754579,,,,,,
1220,3.021172161,,,,,,
1225,3.025201465,,,,,,
1230,3.026813187,,,,,,
1235,3.029230769,,,,,,
1240,3.032454212,,,,,,
1245,3.034065934,,,,,,
1250,3.037289377,,,,,,
1255,3.038901099,,,,,,
1260,3.041318681,,,,,,
1265,3.042930403,,,,,,
1270,3.045347985,,,,,,
1275,3.048571429,,,,,,
1280,3.051794872,,,,,,
1285,3.055018315,,,,,,
1290,3.055018315,,,,,,
1295,3.056630037,,,,,,
1300,3.05985348,,,,,,
1305,3.061465201,,,,,,
1310,3.064688645,,,,,,
1314,3.065494505,,,,,,
1319,3.067912088,,,,,,
1324,3.06952381,,,,,,
1329,3.071941392,,,,,,
1334,3.074358974,,,,,,
1339,3.077582418,,,,,,
1345,3.079194139,,,,,,
1350,3.080805861,,,,,,
1355,3.082417582,,,,,,
1360,3.083223443,,,,,,
1365,3.088864469,,,,,,
1370,3.08967033,,,,,,
1375,3.09047619,,,,,,
1380,3.092087912,,,,,,
1385,3.096117216,,,,,,
1390,3.096117216,,,,,,
1395,3.097728938,,,,,,
1400,3.10014652,,,,,,
1405,3.100952381,,,,,,
1410,3.103369963,,,,,,
1415,3.105787546,,,,,,
1420,3.104981685,,,,,,
1425,3.109010989,,,,,,
1430,3.10981685,,,,,,
1435,3.112234432,,,,,,
1439,3.112234432,,,,,,
1444,3.115457875,,,,,,
1449,3.115457875,,,,,,
1454,3.121098901,,,,,,
1459,3.119487179,,,,,,
1464,3.121904762,,,,,,
1469,3.122710623,,,,,,
1475,3.124322344,,,,,,
1480,3.125934066,,,,,,
1485,3.128351648,,,,,,
1490,3.131575092,,,,,,
1495,3.130769231,,,,,,
1500,3.132380952,,,,,,
1505,3.132380952,,,,,,
1510,3.135604396,,,,,,
1515,3.138021978,,,,,,
1520,3.138827839,,,,,,
1525,3.138827839,,,,,,
1530,3.141245421,,,,,,
1535,3.142051282,,,,,,
1540,3.142857143,,,,,,
1545,3.145274725,,,,,,
1550,3.146886447,,,,,,
1555,3.147692308,,,,,,
1560,3.149304029,,,,,,
1564,3.15010989,,,,,,
1569,3.151721612,,,,,,
1574,3.153333333,,,,,,
1579,3.154139194,,,,,,
1584,3.152527473,,,,,,
1589,3.158974359,,,,,,
1594,3.158168498,,,,,,
1599,3.158168498,,,,,,
1605,3.160586081,,,,,,
1610,3.161391941,,,,,,
1615,3.161391941,,,,,,
1620,3.163809524,,,,,,
1625,3.164615385,,,,,,
1630,3.166227106,,,,,,
1635,3.167838828,,,,,,
1640,3.169450549,,,,,,
1645,3.168644689,,,,,,
1650,3.171868132,,,,,,
1655,3.171062271,,,,,,
1660,3.173479853,,,,,,
1665,3.174285714,,,,,,
1670,3.175897436,,,,,,
1675,3.175897436,,,,,,
1680,3.176703297,,,,,,
1685,3.179120879,,,,,,
1689,3.17992674,,,,,,
1694,3.17992674,,,,,,
1699,3.181538462,,,,,,
1704,3.180732601,,,,,,
1709,3.183150183,,,,,,
1714,3.183956044,,,,,,
1719,3.183956044,,,,,,
1724,3.186373626,,,,,,
1730,3.187179487,,,,,,
1735,3.188791209,,,,,,
1740,3.18959707,,,,,,
1745,3.192014652,,,,,,
1750,3.191208791,,,,,,
1755,3.191208791,,,,,,
1760,3.193626374,,,,,,
1765,3.192820513,,,,,,
1770,3.194432234,,,,,,
1775,3.194432234,,,,,,
1780,3.194432234,,,,,,
1785,3.196043956,,,,,,
1790,3.196849817,,,,,,
1795,3.196849817,,,,,,
1800,3.20007326,,,,,,
1805,3.20007326,,,,,,
1810,3.199267399,,,,,,
1814,3.20007326,,,,,,
1819,3.201684982,,,,,,
1824,3.202490842,,,,,,
1829,3.204102564,,,,,,
1834,3.204908425,,,,,,
1839,3.205714286,,,,,,
1844,3.205714286,,,,,,
1849,3.206520147,,,,,,
1854,3.207326007,,,,,,
1860,3.207326007,,,,,,
1865,3.208937729,,,,,,
1870,3.20974359,,,,,,
1875,3.207326007,,,,,,
1880,3.211355311,,,,,,
1885,3.212161172,,,,,,
1890,3.212161172,,,,,,
1895,3.212967033,,,,,,
1900,3.213772894,,,,,,
1905,3.214578755,,,,,,
1910,3.216190476,,,,,,
1915,3.215384615,,,,,,
1920,3.216190476,,,,,,
1925,3.217802198,,,,,,
1930,3.216996337,,,,,,
1935,3.218608059,,,,,,
1939,3.219413919,,,,,,
1944,3.22021978,,,,,,
1949,3.218608059,,,,,,
1954,3.221025641,,,,,,
1959,3.223443223,,,,,,
1964,3.22021978,,,,,,
1969,3.222637363,,,,,,
1974,3.223443223,,,,,,
1979,3.224249084,,,,,,
1985,3.224249084,,,,,,
1990,3.225054945,,,,,,
1995,3.225860806,,,,,,
2000,3.226666667,,,,,,
2004,3.226666667,,,,,,
2010,3.227472527,,,,,,
2014,3.227472527,,,,,,
2020,3.228278388,,,,,,
2024,3.228278388,,,,,,
2030,3.22989011,,,,,,
2034,3.229084249,,,,,,
2040,3.232307692,,,,,,
2044,3.233113553,,,,,,
2050,3.231501832,,,,,,
2055,3.231501832,,,,,,
2060,3.232307692,,,,,,
2065,3.232307692,,,,,,
2070,3.233919414,,,,,,
2075,3.234725275,,,,,,
2080,3.234725275,,,,,,
2085,3.233919414,,,,,,
2090,3.235531136,,,,,,
2095,3.235531136,,,,,,
2100,3.237948718,,,,,,
2105,3.237142857,,,,,,
2110,3.235531136,,,,,,
2115,3.237948718,,,,,,
2120,3.237142857,,,,,,
2125,3.23956044,,,,,,
2129,3.238754579,,,,,,
2135,3.23956044,,,,,,
2139,3.238754579,,,,,,
2145,3.238754579,,,,,,
2149,3.2403663,,,,,,
2155,3.2403663,,,,,,
2159,3.241172161,,,,,,
2165,3.241978022,,,,,,
2169,3.242783883,,,,,,
2175,3.241978022,,,,,,
2180,3.242783883,,,,,,
2185,3.242783883,,,,,,
2190,3.243589744,,,,,,
2195,3.244395604,,,,,,
2200,3.244395604,,,,,,
2205,3.245201465,,,,,,
2210,3.247619048,,,,,,
2215,3.246007326,,,,,,
2220,3.246007326,,,,,,
2225,3.246813187,,,,,,
2230,3.246813187,,,,,,
2235,3.247619048,,,,,,
2240,3.247619048,,,,,,
2245,3.247619048,,,,,,
2250,3.246007326,,,,,,
2254,3.248424908,,,,,,
2260,3.248424908,,,,,,
2264,3.248424908,,,,,,
2270,3.251648352,,,,,,
2274,3.248424908,,,,,,
2280,3.248424908,,,,,,
2284,3.25003663,,,,,,
2290,3.25003663,,,,,,
2294,3.253260073,,,,,,
2300,3.251648352,,,,,,
2305,3.251648352,,,,,,
2310,3.250842491,,,,,,
2315,3.252454212,,,,,,
2320,3.251648352,,,,,,
2325,3.252454212,,,,,,
2330,3.253260073,,,,,,
2335,3.254871795,,,,,,
2340,3.253260073,,,,,,
2345,3.254065934,,,,,,
2350,3.254065934,,,,,,
2355,3.254065934,,,,,,
2360,3.258095238,,,,,,
2365,3.254871795,,,,,,
2370,3.251648352,,,,,,
2375,3.255677656,,,,,,
2379,3.254871795,,,,,,
2385,3.255677656,,,,,,
2389,3.256483516,,,,,,
2395,3.254065934,,,,,,
2399,3.256483516,,,,,,
2405,3.256483516,,,,,,
2409,3.258095238,,,,,,
2415,3.256483516,,,,,,
2419,3.258095238,,,,,,
2425,3.258095238,,,,,,
2429,3.258095238,,,,,,
2435,3.25970696,,,,,,
2440,3.258095238,,,,,,
2445,3.255677656,,,,,,
2450,3.258095238,,,,,,
2455,3.261318681,,,,,,
2460,3.25970696,,,,,,
2465,3.258901099,,,,,,
2470,3.25970696,,,,,,
2475,3.25970696,,,,,,
2480,3.260512821,,,,,,
2485,3.261318681,,,,,,
2490,3.261318681,,,,,,
2495,3.261318681,,,,,,
2500,3.260512821,,,,,,
2504,3.262930403,,,,,,
2510,3.261318681,,,,,,
2514,3.261318681,,,,,,
2520,3.261318681,,,,,,
2524,3.260512821,,,,,,
2530,3.263736264,,,,,,
2534,3.262930403,,,,,,
2540,3.262930403,,,,,,
2544,3.261318681,,,,,,
2550,3.262930403,,,,,,
2554,3.262930403,,,,,,
2560,3.263736264,,,,,,
2565,3.263736264,,,,,,
2570,3.262930403,,,,,,
2575,3.264542125,,,,,,
2580,3.262930403,,,,,,
2585,3.264542125,,,,,,
2590,3.263736264,,,,,,
2595,3.264542125,,,,,,
2600,3.266153846,,,,,,
2605,3.266959707,,,,,,
2610,3.265347985,,,,,,
2615,3.261318681,,,,,,
2620,3.265347985,,,,,,
2625,3.266153846,,,,,,
2629,3.266153846,,,,,,
2635,3.266153846,,,,,,
2639,3.269377289,,,,,,
2645,3.266153846,,,,,,
2649,3.266959707,,,,,,
2655,3.266959707,,,,,,
2659,3.266959707,,,,,,
2665,3.269377289,,,,,,
2669,3.267765568,,,,,,
2675,3.266959707,,,,,,
2679,3.267765568,,,,,,
2685,3.267765568,,,,,,
2690,3.267765568,,,,,,
2695,3.267765568,,,,,,
2700,3.275018315,,,,,,
2705,3.267765568,,,,,,
2710,3.267765568,,,,,,
2715,3.267765568,,,,,,
2720,3.269377289,,,,,,
2725,3.269377289,,,,,,
2730,3.269377289,,,,,,
2735,3.269377289,,,,,,
2740,3.266959707,,,,,,
2745,3.269377289,,,,,,
2750,3.269377289,,,,,,
2754,3.27018315,,,,,,
2760,3.269377289,,,,,,
2764,3.27018315,,,,,,
2770,3.27018315,,,,,,
2774,3.27018315,,,,,,
2780,3.267765568,,,,,,
2784,3.270989011,,,,,,
2790,3.27018315,,,,,,
2794,3.270989011,,,,,,
2800,3.270989011,,,,,,
2804,3.270989011,,,,,,
2810,3.270989011,,,,,,
2814,3.272600733,,,,,,
2820,3.271794872,,,,,,
2825,3.270989011,,,,,,
2830,3.270989011,,,,,,
2835,3.271794872,,,,,,
2840,3.270989011,,,,,,
2845,3.271794872,,,,,,
2850,3.274212454,,,,,,
2855,3.270989011,,,,,,
2860,3.271794872,,,,,,
2865,3.272600733,,,,,,
2870,3.270989011,,,,,,
2875,3.270989011,,,,,,
2879,3.272600733,,,,,,
2885,3.272600733,,,,,,
2889,3.273406593,,,,,,
2895,3.272600733,,,,,,
2899,3.272600733,,,,,,
2905,3.272600733,,,,,,
2909,3.272600733,,,,,,
2915,3.270989011,,,,,,
2919,3.273406593,,,,,,
2925,3.274212454,,,,,,
2929,3.273406593,,,,,,
2935,3.272600733,,,,,,
2939,3.272600733,,,,,,
2945,3.275824176,,,,,,
2950,3.273406593,,,,,,
2955,3.274212454,,,,,,
2960,3.274212454,,,,,,
2965,3.273406593,,,,,,
2970,3.272600733,,,,,,
2975,3.274212454,,,,,,
2980,3.274212454,,,,,,
2985,3.275824176,,,,,,
2990,3.274212454,,,,,,
2995,3.274212454,,,,,,
3000,3.274212454,,,,,,
3004,3.274212454,,,,,,
3010,3.274212454,,,,,,
3014,3.274212454,,,,,,
3020,3.274212454,,,,,,
3024,3.274212454,,,,,,
3030,3.274212454,,,,,,
3034,3.275824176,,,,,,
3040,3.275018315,,,,,,
3044,3.275824176,,,,,,
3050,3.272600733,,,,,,
3054,3.275018315,,,,,,
3060,3.274212454,,,,,,
3064,3.275824176,,,,,,
3070,3.275018315,,,,,,
3075,3.275824176,,,,,,
3080,3.275824176,,,,,,
3085,3.275824176,,,,,,
3090,3.275824176,,,,,,
3095,3.276630037,,,,,,
3100,3.275824176,,,,,,
3105,3.275824176,,,,,,
3110,3.276630037,,,,,,
3115,3.278241758,,,,,,
3120,3.275824176,,,,,,
3125,3.277435897,,,,,,
3129,3.277435897,,,,,,
3135,3.275824176,,,,,,
3139,3.277435897,,,,,,
3145,3.276630037,,,,,,
3149,3.275824176,,,,,,
3155,3.276630037,,,,,,
3159,3.277435897,,,,,,
3165,3.275824176,,,,,,
3169,3.277435897,,,,,,
3175,3.276630037,,,,,,
3179,3.277435897,,,,,,
3185,3.277435897,,,,,,
3189,3.278241758,,,,,,
3195,3.278241758,,,,,,
3199,3.277435897,,,,,,
3205,3.276630037,,,,,,
3210,3.277435897,,,,,,
3215,3.277435897,,,,,,
3220,3.277435897,,,,,,
3225,3.279047619,,,,,,
3230,3.277435897,,,,,,
3235,3.278241758,,,,,,
3240,3.278241758,,,,,,
3245,3.278241758,,,,,,
3250,3.277435897,,,,,,
3254,3.279047619,,,,,,
3260,3.279047619,,,,,,
3264,3.277435897,,,,,,
3270,3.278241758,,,,,,
3274,3.277435897,,,,,,
3280,3.278241758,,,,,,
3284,3.282271062,,,,,,
3290,3.279047619,,,,,,
3294,3.278241758,,,,,,
3300,3.279047619,,,,,,
3304,3.278241758,,,,,,
3310,3.280659341,,,,,,
3314,3.278241758,,,,,,
3320,3.279047619,,,,,,
3324,3.279047619,,,,,,
3330,3.278241758,,,,,,
3335,3.278241758,,,,,,
3340,3.279047619,,,,,,
3345,3.278241758,,,,,,
3350,3.279047619,,,,,,
3355,3.279047619,,,,,,
3360,3.279047619,,,,,,
3365,3.279047619,,,,,,
3370,3.277435897,,,,,,
3375,3.27985348,,,,,,
3379,3.280659341,,,,,,
3385,3.279047619,,,,,,
3389,3.279047619,,,,,,
3395,3.279047619,,,,,,
3399,3.27985348,,,,,,
3405,3.279047619,,,,,,
3409,3.279047619,,,,,,
3415,3.279047619,,,,,,
3419,3.279047619,,,,,,
3425,3.280659341,,,,,,
3429,3.279047619,,,,,,
3435,3.279047619,,,,,,
3439,3.279047619,,,,,,
3445,3.280659341,,,,,,
3449,3.27985348,,,,,,
3455,3.277435897,,,,,,
3460,3.280659341,,,,,,
3465,3.277435897,,,,,,
3470,3.279047619,,,,,,
3475,3.27985348,,,,,,
3480,3.27985348,,,,,,
3485,3.279047619,,,,,,
3490,3.280659341,,,,,,
3495,3.279047619,,,,,,
3500,3.277435897,,,,,,
3504,3.280659341,,,,,,
3510,3.280659341,,,,,,
3514,3.279047619,,,,,,
3520,3.280659341,,,,,,
3524,3.280659341,,,,,,
3530,3.27985348,,,,,,
3534,3.280659341,,,,,,
3540,3.281465201,,,,,,
3544,3.280659341,,,,,,
3550,3.280659341,,,,,,
3554,3.280659341,,,,,,
3560,3.280659341,,,,,,
3564,3.280659341,,,,,,
3570,3.280659341,,,,,,
3574,3.280659341,,,,,,
3580,3.283882784,,,,,,
3585,3.280659341,,,,,,
3590,3.27985348,,,,,,
3595,3.280659341,,,,,,
3600,3.280659341,,,,,,
3605,3.280659341,,,,,,
3610,3.280659341,,,,,,
3615,3.280659341,,,,,,
3620,3.281465201,,,,,,
3625,3.280659341,,,,,,
3629,3.280659341,,,,,,
3635,3.280659341,,,,,,
3639,3.280659341,,,,,,
3645,3.280659341,,,,,,
3649,3.281465201,,,,,,
3655,3.283076923,,,,,,
3659,3.280659341,,,,,,
3665,3.280659341,,,,,,
3669,3.280659341,,,,,,
3675,3.280659341,,,,,,
3679,3.280659341,,,,,,
3685,3.281465201,,,,,,
3689,3.281465201,,,,,,
3695,3.282271062,,,,,,
3699,3.278241758,,,,,,
3705,3.280659341,,,,,,
3709,3.281465201,,,,,,
3715,3.280659341,,,,,,
3720,3.281465201,,,,,,
3725,3.280659341,,,,,,
3730,3.282271062,,,,,,
3735,3.280659341,,,,,,
3740,3.282271062,,,,,,
3745,3.281465201,,,,,,
3750,3.280659341,,,,,,
3754,3.280659341,,,,,,
3760,3.282271062,,,,,,
3764,3.27985348,,,,,,
3770,3.281465201,,,,,,
3774,3.281465201,,,,,,
3780,3.280659341,,,,,,
3784,3.282271062,,,,,,
3790,3.282271062,,,,,,
3794,3.280659341,,,,,,
3800,3.282271062,,,,,,
3804,3.281465201,,,,,,
3810,3.282271062,,,,,,
3814,3.281465201,,,,,,
3820,3.281465201,,,,,,
3824,3.283076923,,,,,,
3830,3.282271062,,,,,,
3834,3.281465201,,,,,,
3840,3.282271062,,,,,,
3845,3.282271062,,,,,,
3850,3.284688645,,,,,,
3855,3.280659341,,,,,,
3860,3.282271062,,,,,,
3865,3.281465201,,,,,,
3870,3.280659341,,,,,,
3875,3.282271062,,,,,,
3879,3.282271062,,,,,,
3885,3.282271062,,,,,,
3889,3.281465201,,,,,,
3895,3.281465201,,,,,,
3899,3.281465201,,,,,,
3905,3.282271062,,,,,,
3909,3.283882784,,,,,,
3915,3.281465201,,,,,,
3919,3.283882784,,,,,,
3925,3.280659341,,,,,,
3929,3.281465201,,,,,,
3935,3.282271062,,,,,,
3939,3.282271062,,,,,,
3945,3.283076923,,,,,,
3949,3.282271062,,,,,,
3955,3.283076923,,,,,,
3959,3.280659341,,,,,,
3965,3.280659341,,,,,,
3970,3.282271062,,,,,,
3975,3.280659341,,,,,,
3980,3.282271062,,,,,,
3985,3.282271062,,,,,,
3990,3.282271062,,,,,,
3995,3.282271062,,,,,,
4000,3.282271062,,,,,,
4005,3.282271062,,,,,,
4009,3.282271062,,,,,,
4014,3.284688645,,,,,,
4020,3.282271062,,,,,,
4025,3.282271062,,,,,,
4029,3.282271062,,,,,,
4034,3.283076923,,,,,,
4040,3.283076923,,,,,,
4045,3.282271062,,,,,,
4049,3.282271062,,,,,,
4054,3.282271062,,,,,,
4060,3.282271062,,,,,,
4065,3.282271062,,,,,,
4069,3.283882784,,,,,,
4074,3.283076923,,,,,,
4080,3.282271062,,,,,,
4085,3.282271062,,,,,,
4089,3.281465201,,,,,,
4094,3.283076923,,,,,,
4100,3.282271062,,,,,,
4105,3.283076923,,,,,,
4110,3.282271062,,,,,,
4115,3.282271062,,,,,,
4120,3.283076923,,,,,,
4125,3.283076923,,,,,,
4130,3.282271062,,,,,,
4134,3.280659341,,,,,,
4140,3.282271062,,,,,,
4145,3.282271062,,,,,,
4150,3.283076923,,,,,,
4154,3.282271062,,,,,,
4160,3.282271062,,,,,,
4165,3.283076923,,,,,,
4170,3.283076923,,,,,,
4174,3.282271062,,,,,,
4180,3.283076923,,,,,,
4185,3.283882784,,,,,,
4190,3.282271062,,,,,,
4194,3.283076923,,,,,,
4200,3.283076923,,,,,,
4205,3.282271062,,,,,,
4210,3.283076923,,,,,,
4214,3.282271062,,,,,,
4220,3.282271062,,,,,,
4225,3.280659341,,,,,,
4230,3.282271062,,,,,,
4235,3.281465201,,,,,,
4240,3.283076923,,,,,,
4245,3.282271062,,,,,,
4250,3.282271062,,,,,,
4255,3.283076923,,,,,,
4259,3.285494505,,,,,,
4265,3.282271062,,,,,,
4270,3.282271062,,,,,,
4275,3.283076923,,,,,,
4279,3.282271062,,,,,,
4285,3.282271062,,,,,,
4290,3.283076923,,,,,,
4295,3.280659341,,,,,,
4299,3.283076923,,,,,,
4305,3.283076923,,,,,,
4310,3.283076923,,,,,,
4315,3.283076923,,,,,,
4319,3.281465201,,,,,,
4325,3.283076923,,,,,,
4330,3.283076923,,,,,,
4335,3.284688645,,,,,,
4339,3.283882784,,,,,,
4345,3.283076923,,,,,,
4350,3.283882784,,,,,,
4355,3.281465201,,,,,,
4360,3.283076923,,,,,,
4365,3.283076923,,,,,,
4370,3.283076923,,,,,,
4375,3.282271062,,,,,,
4380,3.283076923,,,,,,
4384,3.283076923,,,,,,
4390,3.281465201,,,,,,
4395,3.282271062,,,,,,
4400,3.280659341,,,,,,
4404,3.283076923,,,,,,
4410,3.283882784,,,,,,
4415,3.283882784,,,,,,
4420,3.283076923,,,,,,
4424,3.283882784,,,,,,
4430,3.282271062,,,,,,
4435,3.283076923,,,,,,
4440,3.283882784,,,,,,
4444,3.283882784,,,,,,
4450,3.283076923,,,,,,
4455,3.282271062,,,,,,
4460,3.282271062,,,,,,
4464,3.283882784,,,,,,
4470,3.284688645,,,,,,
4475,3.283076923,,,,,,
4480,3.283076923,,,,,,
4485,3.282271062,,,,,,
4490,3.283076923,,,,,,
4495,3.283076923,,,,,,
4500,3.283882784,,,,,,
4505,3.283882784,,,,,,
4509,3.282271062,,,,,,
4515,3.283882784,,,,,,
4520,3.283882784,,,,,,
4525,3.283882784,,,,,,
4529,3.288717949,,,,,,
4535,3.282271062,,,,,,
4540,3.283076923,,,,,,
4545,3.283882784,,,,,,
4549,3.283882784,,,,,,
4555,3.283076923,,,,,,
4560,3.282271062,,,,,,
4565,3.283076923,,,,,,
4569,3.285494505,,,,,,
4575,3.283882784,,,,,,
4580,3.283076923,,,,,,
4585,3.283076923,,,,,,
4589,3.282271062,,,,,,
4595,3.283882784,,,,,,
4600,3.283882784,,,,,,
4605,3.283882784,,,,,,
4610,3.283882784,,,,,,
4615,3.283076923,,,,,,
4620,3.282271062,,,,,,
4625,3.283882784,,,,,,
4630,3.283882784,,,,,,
4634,3.283882784,,,,,,
4640,3.283076923,,,,,,
4645,3.282271062,,,,,,
4650,3.283882784,,,,,,
4654,3.283076923,,,,,,
4660,3.283076923,,,,,,
4665,3.282271062,,,,,,
4670,3.283076923,,,,,,
4674,3.283076923,,,,,,
4680,3.283882784,,,,,,
4685,3.283882784,,,,,,
4690,3.283882784,,,,,,
4694,3.283882784,,,,,,
4700,3.283882784,,,,,,
4705,3.283882784,,,,,,
4710,3.283882784,,,,,,
4714,3.283882784,,,,,,
4720,3.282271062,,,,,,
4725,3.283076923,,,,,,
4730,3.283882784,,,,,,
4734,3.283076923,,,,,,
4740,3.283882784,,,,,,
4745,3.283076923,,,,,,
4750,3.283882784,,,,,,
4755,3.283076923,,,,,,
4759,3.283882784,,,,,,
4765,3.283882784,,,,,,
4770,3.284688645,,,,,,
4775,3.283882784,,,,,,
4779,3.284688645,,,,,,
4785,3.281465201,,,,,,
4790,3.283882784,,,,,,
4795,3.283076923,,,,,,
4799,3.283882784,,,,,,
4805,3.283882784,,,,,,
4810,3.283076923,,,,,,
4815,3.283882784,,,,,,
4819,3.283882784,,,,,,
4825,3.283882784,,,,,,
4830,3.284688645,,,,,,
4835,3.283882784,,,,,,
4839,3.282271062,,,,,,
4845,3.282271062,,,,,,
4850,3.283882784,,,,,,
4855,3.283882784,,,,,,
4859,3.283882784,,,,,,
4865,3.283882784,,,,,,
4870,3.283076923,,,,,,
4875,3.283882784,,,,,,
4880,3.283882784,,,,,,
4884,3.283076923,,,,,,
4890,3.283882784,,,,,,
4895,3.281465201,,,,,,
4900,3.283882784,,,,,,
4904,3.284688645,,,,,,
4910,3.283882784,,,,,,
4915,3.283882784,,,,,,
4920,3.283882784,,,,,,
4924,3.283882784,,,,,,
4930,3.283882784,,,,,,
4935,3.282271062,,,,,,
4940,3.283882784,,,,,,
4944,3.280659341,,,,,,
4950,3.283882784,,,,,,
4955,3.283882784,,,,,,
4960,3.283882784,,,,,,
4964,3.283882784,,,,,,
4970,3.283882784,,,,,,
4975,3.283882784,,,,,,
4980,3.282271062,,,,,,
4984,3.283076923,,,,,,
4990,3.283882784,,,,,,
4995,3.283882784,,,,,,
